{
    "code": 200,
    "meta": {
        "pagination": {
            "total": 284,
            "pages": 15,
            "page": 1,
            "limit": 20
        }
    },
    "data": [
        {
            "id": 1,
            "name": "Enormous Rubber Shoes",
            "description": "Omnis decor aeger curso cohibeo compello despirmatio cernuus stipes pecunia infit consuasor denuo aptus aedificium caput avoco curatio patrocinor tutis sui fugit atque conservo dapifer quia deorsum animadverto decet copiose calcar ut appono tabgo eaque a numquam atrocitas creta acceptus apparatus vorax sint triduana caterva umerus aperte rem sunt carbo sit tametsi nesciunt quia comedo cognatus viduata verto attonbitus campana et.",
            "image": "https://loremflickr.com/250/250",
            "price": "14487.17",
            "discount_amount": "757.28",
            "status": true,
            "categories": [
                {
                    "id": 10,
                    "name": "Sports & Shoes"
                },
                {
                    "id": 7,
                    "name": "Industrial"
                }
            ]
        },
        {
            "id": 2,
            "name": "Intelligent Concrete Wallet",
            "description": "Adeptio suppellex vallum a adopto tempus triduana conqueror temperantia eveniet summopere terreo conduco thesaurus auctor quia tandem video spero censura consequatur sodalitas adipiscor comis tibi creator collum ustulo cerno curto ascisco surgo rerum perspiciatis bardus somniculosus aptus uter depraedor stabilis utpote corroboro est cunctatio beneficium curtus aequus aliquid.",
            "image": "https://loremflickr.com/250/250",
            "price": "4543.38",
            "discount_amount": "2618.33",
            "status": true,
            "categories": [
                {
                    "id": 5,
                    "name": "Automotive & Garden"
                }
            ]
        },
        {
            "id": 3,
            "name": "Awesome Steel Plate",
            "description": "Uterque pectus qui quam currus verecundia tollo non voluptatem congregatio excepturi dolore baiulus supra viscus cenaculum sonitus taceo accusator capio suscipio voco hic turba timor coruscus audax vesica subito caput arbor adsuesco coaegresco uter video sed ulterius vis trans abscido degenero vestrum natus complectus ademptio conor vobis pecunia vitae aeneus carbo textus.",
            "image": "https://loremflickr.com/250/250",
            "price": "27058.39",
            "discount_amount": "6924.65",
            "status": true,
            "categories": [
                {
                    "id": 12,
                    "name": "Industrial, Kids & Games"
                },
                {
                    "id": 11,
                    "name": "Movies"
                }
            ]
        },
        {
            "id": 4,
            "name": "Synergistic Wooden Knife",
            "description": "Voluptas maxime subito ultio tactus non victus dolore autus caste cimentarius deserunt apostolus depopulo admitto tripudio quae sumo ratione validus admoveo peccatus caecus suspendo aut cruciamentum teneo vulnus convoco patrocinor vesper quod nihil provident aliqua crastinus amissio velit atavus corona suscipit patior spero auxilium curto verbera socius agnosco eligendi coniuratio tepesco adinventitias nemo sumptus suadeo aegrus deleniti adipisci autem voluptas quos turba.",
            "image": "https://loremflickr.com/250/250",
            "price": "3658.44",
            "discount_amount": "35.51",
            "status": true,
            "categories": [
                {
                    "id": 14,
                    "name": "Baby, Garden & Tools"
                },
                {
                    "id": 12,
                    "name": "Industrial, Kids & Games"
                },
                {
                    "id": 5,
                    "name": "Automotive & Garden"
                },
                {
                    "id": 3,
                    "name": "Outdoors, Beauty & Music"
                },
                {
                    "id": 9,
                    "name": "Games & Sports"
                },
                {
                    "id": 6,
                    "name": "Baby & Health"
                }
            ]
        },
        {
            "id": 5,
            "name": "Ergonomic Linen Knife",
            "description": "Cur pax artificiose amoveo suadeo bardus nobis cognomen depereo bos civitas aperiam cinis peior atavus vitium comedo colligo solium adiuvo et volaticus eos anser ulterius fugit tum vestrum alter aut aufero perspiciatis benigne cernuus amplexus adfero defetiscor velociter amitto suspendo volva porro eligendi sumptus stabilis.",
            "image": "https://loremflickr.com/250/250",
            "price": "8233.42",
            "discount_amount": "3001.14",
            "status": true,
            "categories": [
                {
                    "id": 8,
                    "name": "Movies & Computers"
                },
                {
                    "id": 2,
                    "name": "Games"
                },
                {
                    "id": 4,
                    "name": "Outdoors & Home"
                },
                {
                    "id": 3,
                    "name": "Outdoors, Beauty & Music"
                },
                {
                    "id": 9,
                    "name": "Games & Sports"
                }
            ]
        },
        {
            "id": 6,
            "name": "Rustic Marble Hat",
            "description": "Ex censura deleniti ut argentum crustulum valetudo adhuc degusto tertius derelinquo tergum neque sodalitas adulatio appono defigo ullus armarium amet coerceo torrens apud super temperantia desino provident audax tendo ascit versus defetiscor conitor suffragium valeo subseco solium ante velum amissio cernuus cicuta termes textilis crepusculum error aureus.",
            "image": "https://loremflickr.com/250/250",
            "price": "28593.66",
            "discount_amount": "23588.08",
            "status": true,
            "categories": [
                {
                    "id": 14,
                    "name": "Baby, Garden & Tools"
                },
                {
                    "id": 5,
                    "name": "Automotive & Garden"
                },
                {
                    "id": 11,
                    "name": "Movies"
                },
                {
                    "id": 8,
                    "name": "Movies & Computers"
                },
                {
                    "id": 10,
                    "name": "Sports & Shoes"
                }
            ]
        },
        {
            "id": 7,
            "name": "Practical Paper Keyboard",
            "description": "Sumo conscendo adficio absum deleniti tametsi tabella coepi communis rerum damno tenuis distinctio conduco aegrotatio alias nisi rem succedo voluptatibus nobis tempora suffoco amplus aut annus cattus depereo tristis ago.",
            "image": "https://loremflickr.com/250/250",
            "price": "48801.97",
            "discount_amount": "18443.05",
            "status": true,
            "categories": [
                {
                    "id": 13,
                    "name": "Tools"
                },
                {
                    "id": 6,
                    "name": "Baby & Health"
                },
                {
                    "id": 1,
                    "name": "Toys"
                },
                {
                    "id": 11,
                    "name": "Movies"
                },
                {
                    "id": 3,
                    "name": "Outdoors, Beauty & Music"
                }
            ]
        },
        {
            "id": 8,
            "name": "Practical Steel Bottle",
            "description": "Vulgus somnus vito socius acsi in degenero eaque utpote debitis arcus alioqui decipio commemoro bos antiquus volaticus odio aperte placeat tergo arcesso virga modi distinctio amet minus qui anser cattus strues assumenda curso bibo quam adhaero tantum suscipit ulterius depopulo ascit autem virtus conculco ocer credo valens quaerat aegrus pauci tres aptus aliquam.",
            "image": "https://loremflickr.com/250/250",
            "price": "47954.86",
            "discount_amount": "16278.0",
            "status": true,
            "categories": [
                {
                    "id": 4,
                    "name": "Outdoors & Home"
                },
                {
                    "id": 14,
                    "name": "Baby, Garden & Tools"
                },
                {
                    "id": 9,
                    "name": "Games & Sports"
                }
            ]
        },
        {
            "id": 9,
            "name": "Sleek Plastic Bag",
            "description": "Non demens voluptates textilis amplitudo dolorum delicate artificiose ascisco atrox stella consequuntur totus triduana vacuus vergo arceo creber ater cito beneficium arcus acceptus tenax tolero.",
            "image": "https://loremflickr.com/250/250",
            "price": "31102.67",
            "discount_amount": "4064.82",
            "status": true,
            "categories": [
                {
                    "id": 10,
                    "name": "Sports & Shoes"
                },
                {
                    "id": 3,
                    "name": "Outdoors, Beauty & Music"
                },
                {
                    "id": 7,
                    "name": "Industrial"
                }
            ]
        },
        {
            "id": 10,
            "name": "Mediocre Granite Shirt",
            "description": "Crapula et cometes campana veniam tamen spectaculum amitto clarus derideo tollo spiritus amita fugiat stipes tardus dapifer vaco alius ex bonus crebro crudelis concedo alveus vestigium crur vita agnosco suffoco stips cogo nemo addo conspergo eveniet constans quia sonitus unde enim eius solium cunae virtus laboriosam angulus excepturi volo amicitia animus alo molestiae cena doloribus varietas turbo beatus sordeo tempore.",
            "image": "https://loremflickr.com/250/250",
            "price": "10553.1",
            "discount_amount": "9982.89",
            "status": true,
            "categories": [
                {
                    "id": 7,
                    "name": "Industrial"
                },
                {
                    "id": 9,
                    "name": "Games & Sports"
                },
                {
                    "id": 1,
                    "name": "Toys"
                },
                {
                    "id": 10,
                    "name": "Sports & Shoes"
                },
                {
                    "id": 3,
                    "name": "Outdoors, Beauty & Music"
                },
                {
                    "id": 8,
                    "name": "Movies & Computers"
                }
            ]
        },
        {
            "id": 11,
            "name": "Ergonomic Concrete Table",
            "description": "Creptio cedo surculus patruus currus auris cunabula denego spectaculum et admitto dolor tepidus acerbitas vomito atque ocer tres conturbo vinitor utique benigne tametsi beneficium sollers universe et tempore confero acidus callide cresco peior suppellex vobis accendo sollicito ex angulus cultellus consuasor ascisco ipsum quaerat tamquam thymum trucido villa.",
            "image": "https://loremflickr.com/250/250",
            "price": "35022.1",
            "discount_amount": "15423.55",
            "status": true,
            "categories": [
                {
                    "id": 7,
                    "name": "Industrial"
                }
            ]
        },
        {
            "id": 12,
            "name": "Lightweight Leather Watch",
            "description": "Et ager adduco vae solum blanditiis auditor cilicium ademptio thesis articulus summa repudiandae uter aut appositus depono fugit custodia perspiciatis abeo speciosus consequatur canto damnatio atrocitas speculum minima caelum tergeo thalassinus centum decipio maxime.",
            "image": "https://loremflickr.com/250/250",
            "price": "48483.42",
            "discount_amount": "35976.7",
            "status": true,
            "categories": [
                {
                    "id": 12,
                    "name": "Industrial, Kids & Games"
                },
                {
                    "id": 10,
                    "name": "Sports & Shoes"
                },
                {
                    "id": 5,
                    "name": "Automotive & Garden"
                }
            ]
        },
        {
            "id": 13,
            "name": "Lightweight Leather Shoes",
            "description": "Velociter pax solutio antea adsuesco abeo calco paens utroque abstergo animi ultra tot agnosco pecto earum pauci conicio rerum debeo tum cognomen et suffragium testimonium et celo bibo apostolus vomica timidus strues nemo accusamus solum defendo certus absorbeo repellendus titulus caput sint libero subseco basium crapula aer sufficio ustulo audio auxilium usque.",
            "image": "https://loremflickr.com/250/250",
            "price": "34214.14",
            "discount_amount": "20530.19",
            "status": true,
            "categories": [
                {
                    "id": 10,
                    "name": "Sports & Shoes"
                },
                {
                    "id": 5,
                    "name": "Automotive & Garden"
                },
                {
                    "id": 12,
                    "name": "Industrial, Kids & Games"
                }
            ]
        },
        {
            "id": 14,
            "name": "Fantastic Wooden Watch",
            "description": "Tutamen temporibus et depulso eligendi vere circumvenio omnis theca verumtamen cupiditate triumphus cinis careo centum sed thymbra venia speciosus voco altus atque textilis urbanus deficio xiphias accusator sustineo tolero tui rerum fugiat utilis crapula curvus quo recusandae trans absorbeo decens.",
            "image": "https://loremflickr.com/250/250",
            "price": "19632.16",
            "discount_amount": "11277.31",
            "status": true,
            "categories": [
                {
                    "id": 12,
                    "name": "Industrial, Kids & Games"
                },
                {
                    "id": 14,
                    "name": "Baby, Garden & Tools"
                },
                {
                    "id": 8,
                    "name": "Movies & Computers"
                }
            ]
        },
        {
            "id": 15,
            "name": "Small Iron Wallet",
            "description": "Undique vehemens tracto fuga tum quaerat iusto tabula arca animi aeger caelestis culpa asperiores veniam attollo cinis vado reprehenderit asper atqui umerus consequuntur repellendus temporibus dolores aggredior adicio defero amiculum dignissimos viduo accusantium angelus surgo damno tantum cohors arcus demens.",
            "image": "https://loremflickr.com/250/250",
            "price": "10010.42",
            "discount_amount": "4584.69",
            "status": true,
            "categories": [
                {
                    "id": 9,
                    "name": "Games & Sports"
                },
                {
                    "id": 4,
                    "name": "Outdoors & Home"
                },
                {
                    "id": 12,
                    "name": "Industrial, Kids & Games"
                },
                {
                    "id": 8,
                    "name": "Movies & Computers"
                },
                {
                    "id": 1,
                    "name": "Toys"
                },
                {
                    "id": 3,
                    "name": "Outdoors, Beauty & Music"
                }
            ]
        },
        {
            "id": 16,
            "name": "Ergonomic Steel Plate",
            "description": "Cogo curatio repellat expedita et sed attero amissio solio asper rerum terror suggero desino temeritas atrocitas speculum agnosco quis toties usitas avarus degenero vitae natus vestigium theologus trans spiritus conculco comburo possimus sub tener et commodo alioqui substantia auctus aegrus depereo contego pariatur amplitudo admoveo audeo claro vivo animi bonus aut.",
            "image": "https://loremflickr.com/250/250",
            "price": "33466.09",
            "discount_amount": "14932.49",
            "status": true,
            "categories": [
                {
                    "id": 9,
                    "name": "Games & Sports"
                },
                {
                    "id": 3,
                    "name": "Outdoors, Beauty & Music"
                },
                {
                    "id": 10,
                    "name": "Sports & Shoes"
                },
                {
                    "id": 2,
                    "name": "Games"
                },
                {
                    "id": 11,
                    "name": "Movies"
                },
                {
                    "id": 8,
                    "name": "Movies & Computers"
                }
            ]
        },
        {
            "id": 17,
            "name": "Awesome Iron Knife",
            "description": "Ambulo sequi aeneus non dignissimos creator eaque tersus depereo vulnero aut comptus officia denique angustus infit atque ut amicitia vergo tutamen vulgo trucido animi rem depraedor et tergum perferendis adulatio tremo consequuntur qui aduro cupio nobis ut basium acidus alveus delego conturbo defigo adicio apto recusandae.",
            "image": "https://loremflickr.com/250/250",
            "price": "16582.51",
            "discount_amount": "13431.69",
            "status": true,
            "categories": [
                {
                    "id": 13,
                    "name": "Tools"
                },
                {
                    "id": 11,
                    "name": "Movies"
                },
                {
                    "id": 5,
                    "name": "Automotive & Garden"
                }
            ]
        },
        {
            "id": 18,
            "name": "Mediocre Rubber Keyboard",
            "description": "Pel saepe est pecunia porro asper officia delibero vallum in tepidus textor mollitia claudeo maiores tempora iste contego deprecator capillus tibi caelestis tero alo acidus atrox ea rerum suscipio delego nihil comminor suus aurum magnam super decerno sto sufficio autus bos tergum venustas aveho aperio vita animus caries tamquam repellendus correptius dolorum ratione amo ascisco conscendo cogito ambulo collum ultio veniam.",
            "image": "https://loremflickr.com/250/250",
            "price": "1254.09",
            "discount_amount": "332.81",
            "status": true,
            "categories": [
                {
                    "id": 11,
                    "name": "Movies"
                },
                {
                    "id": 7,
                    "name": "Industrial"
                }
            ]
        },
        {
            "id": 19,
            "name": "Mediocre Cotton Gloves",
            "description": "Circumvenio laborum subiungo distinctio tolero tristis laboriosam aequus aeternus texo tenetur terga auditor reprehenderit ea harum spes armarium commemoro vero universe tubineus vomer cotidie cinis alii appello defetiscor adflicto spiritus amicitia caterva soluta velit tabesco ut varietas video torrens.",
            "image": "https://loremflickr.com/250/250",
            "price": "31832.17",
            "discount_amount": "15035.55",
            "status": true,
            "categories": [
                {
                    "id": 2,
                    "name": "Games"
                },
                {
                    "id": 8,
                    "name": "Movies & Computers"
                }
            ]
        },
        {
            "id": 20,
            "name": "Sleek Granite Pants",
            "description": "Cur clibanus pecto eum depereo laudantium acsi subseco tepesco vetus ustulo admoveo turpe vindico abbas volo verumtamen tyrannus coepi subvenio vitae voluptas arbitro ut vito demum utrum aspernatur comparo corrupti sumo adhuc vitiosus absorbeo bibo accipio cervus abduco tergiversatio solium ad curriculum arcus sperno laborum.",
            "image": "https://loremflickr.com/250/250",
            "price": "27058.31",
            "discount_amount": "4008.96",
            "status": true,
            "categories": [
                {
                    "id": 12,
                    "name": "Industrial, Kids & Games"
                },
                {
                    "id": 2,
                    "name": "Games"
                },
                {
                    "id": 6,
                    "name": "Baby & Health"
                },
                {
                    "id": 5,
                    "name": "Automotive & Garden"
                },
                {
                    "id": 10,
                    "name": "Sports & Shoes"
                },
                {
                    "id": 11,
                    "name": "Movies"
                }
            ]
        }
    ]
}